3 Rad sa podacima | Statistički softver 2
…
Paket dplyr koristi malo bogatiju strukturu umesto dataframe-a za tabelarne podatke, a to je tibble. Podatke pretvaramo u taj format na sledeći način:

who_data <- as_tibble(who_data)
who_data

## # A tibble: 2,938 x 22
##    Country  Year Status Life.expectancy Adult.Mortality infant.deaths
##    <fct>   <int> <fct>            <dbl>           <int>         <int>
##  1 Afghan…  2015 Devel…            65               263            62
##  2 Afghan…  2014 Devel…            59.9             271            64
##  3 Afghan…  2013 Devel…            59.9             268            66
##  4 Afghan…  2012 Devel…            59.5             272            69
##  5 Afghan…  2011 Devel…            59.2             275            71
##  6 Afghan…  2010 Devel…            58.8             279            74
##  7 Afghan…  2009 Devel…            58.6             281            77
##  8 Afghan…  2008 Devel…            58.1             287            80
##  9 Afghan…  2007 Devel…            57.5             295            82
## 10 Afghan…  2006 Devel…            57.3             295            84
## # … with 2,928 more rows, and 16 more variables: Alcohol <dbl>,
## #   percentage.expenditure <dbl>, Hepatitis.B <int>, Measles <int>,
## #   BMI <dbl>, under.five.deaths <int>, Polio <int>,
## #   Total.expenditure <dbl>, Diphtheria <int>, HIV.AIDS <dbl>, GDP <dbl>,
## #   Population <dbl>, thinness..1.19.years <dbl>,
## #   thinness.5.9.years <dbl>, Income.composition.of.resources <dbl>,
## #   Schooling <dbl>
…
library(nycflights13)

Prelazimo na pregled funkcija.

3.4.1 select - odabir kolona

Sa ovom funkcijom smo se već susreli i nećemo dužiti. Ona služi da iz tabele koja ima mnogo kolona odaberemo samo one koje su nam od interesa, radi lakšeg pregleda.

Odaberimo iz baze flights samo kolone godina, mesec, dan, polazipte i destinacija.

flights %>%
  select(year, month, day, origin, dest)

## # A tibble: 336,776 x 5
##     year month   day origin dest 
##    <int> <int> <int> <chr>  <chr>
##  1  2013     1     1 EWR    IAH  
##  2  2013     1     1 LGA    IAH  
##  3  2013     1     1 JFK    MIA  
##  4  2013     1     1 JFK    BQN  
##  5  2013     1     1 LGA    ATL  
##  6  2013     1     1 EWR    ORD  
##  7  2013     1     1 EWR    FLL  
##  8  2013     1     1 LGA    IAD  
##  9  2013     1     1 JFK    MCO  
## 10  2013     1     1 LGA    ORD  
## # … with 336,766 more rows
…
Kao primer, možemo da izdvojimo iz baze letova one letove koji idu ka Portlandu, sa kodom aerodroma "PDX".

portland_flights <- flights %>%
  filter(dest == "PDX")
#View(portland_flights)

Kao argument funkciji filter prosledjuje se uslov koji želimo da ispunjavaju redovi koje biramo. To je zapravo vektor TRUE i FALSE vrednosti, kao kod indeksiranja klasičnog dataframe-a. Ovde smo koristili operator jednakosti ==, ali možemo koristiti i druge matematičke operatore poput >, <, >=, <=, !=. Više kriterijuma možemo spajati operatorima konjukcije & (‘i’) i disjunkcije | (‘ili’). Naravno, pored ovih, mogu se koristiti bilo koje funkcije koje daju kao rezultat logičke vektore.

Na primer, možemo da odaberemo letove koji kreću sa aerodroma JFK, a leteli su duže od sat vremena.

flights %>%
  filter(origin == "JFK" & air_time > 60)

## # A tibble: 86,058 x 19
##     year month   day dep_time sched_dep_time dep_delay arr_time
##    <int> <int> <int>    <int>          <int>     <dbl>    <int>
##  1  2013     1     1      542            540         2      923
##  2  2013     1     1      544            545        -1     1004
##  3  2013     1     1      557            600        -3      838
##  4  2013     1     1      558            600        -2      849
##  5  2013     1     1      558            600        -2      853
##  6  2013     1     1      558            600        -2      924
##  7  2013     1     1      606            610        -4      837
##  8  2013     1     1      611            600        11      945
##  9  2013     1     1      613            610         3      925
## 10  2013     1     1      615            615         0     1039
## # … with 86,048 more rows, and 12 more variables: sched_arr_time <int>,
## #   arr_delay <dbl>, carrier <chr>, flight <int>, tailnum <chr>,
## #   origin <chr>, dest <chr>, air_time <dbl>, distance <dbl>, hour <dbl>,
## #   minute <dbl>, time_hour <dttm>
…
btv_sea_flights <- flights %>% 
  filter(origin == "JFK", (dest == "BTV" | dest == "SEA"), month >= 10)
#View(btv_sea_flights)

3.4.3 arrange - sortiranje redova

Često ima smisla sortirati podatke u odnosu na neku kolonu prilikom istraživanja podataka. Paket dplyr nam daje jednostavan način za to kroz funkciju arrange. Par jednostavnih primera sledi.

Sortirajmo letove po trajanju leta rastuće…

flights %>%
  arrange(air_time) %>%
  select(tailnum, air_time)

## # A tibble: 336,776 x 2
##    tailnum air_time
##    <chr>      <dbl>
##  1 N16911        20
##  2 N12167        20
##  3 N27200        21
##  4 N13913        21
##  5 N13955        21
##  6 N12921        21
##  7 N947UW        21
##  8 N8501F        21
##  9 N12160        21
## 10 N16987        21
## # … with 336,766 more rows

… ili opadajuće

flights %>%
  arrange(desc(air_time)) %>%
  select(tailnum, air_time)

## # A tibble: 336,776 x 2
##    tailnum air_time
##    <chr>      <dbl>
##  1 N77066       695
##  2 N389HA       691
##  3 N388HA       686
##  4 N380HA       686
##  5 N384HA       683
##  6 N386HA       679
##  7 N59053       676
##  8 N380HA       676
##  9 N386HA       675
## 10 N76065       671
## # … with 336,766 more rows
…
Sortirajmo letove opadajuće po datumu, ali rastuće po trajanju leta

flights %>%
  arrange(desc(month), desc(day), air_time) %>%
  select(tailnum, month, day, air_time)

## # A tibble: 336,776 x 4
##    tailnum month   day air_time
##    <chr>   <int> <int>    <dbl>
##  1 N952UW     12    31       28
##  2 N13975     12    31       29
##  3 N197JB     12    31       32
##  4 N304JB     12    31       32
##  5 N76514     12    31       32
##  6 N236JB     12    31       32
##  7 N329JB     12    31       33
##  8 N351JB     12    31       33
##  9 N3JAAA     12    31       33
## 10 N206JB     12    31       33
## # … with 336,766 more rows
…
flights <- flights %>% 
  mutate(
    gain = dep_delay - arr_delay,
    hours = air_time / 60,
    gain_per_hour = gain / hours
  )

I sortiramo po gain_per_hour

flights %>%
  arrange(gain_per_hour) %>%
  select(dep_delay, arr_delay, gain, hours, air_time, gain_per_hour)

## # A tibble: 336,776 x 6
##    dep_delay arr_delay  gain hours air_time gain_per_hour
##        <dbl>     <dbl> <dbl> <dbl>    <dbl>         <dbl>
##  1       171       273  -102 0.517       31         -197.
##  2        62       177  -115 0.6         36         -192.
##  3        11       122  -111 0.6         36         -185 
##  4       115       233  -118 0.667       40         -177 
##  5        -7       106  -113 0.65        39         -174.
##  6        -8       123  -131 0.767       46         -171.
##  7        -1       109  -110 0.65        39         -169.
##  8        39       152  -113 0.7         42         -161.
##  9         3        94   -91 0.567       34         -161.
## 10        33       136  -103 0.65        39         -158.
## # … with 336,766 more rows

Ako uposlimo i paket lubridate, koji značajno olakšava rad sa datumima u R-u, možemo dodati i kolonu koja sadrži tačno vreme leta, umesto komponenti koje imamo sada.

#install.packages("lubridate")
library(lubridate)

flights <- flights %>% 
  mutate(departure = make_datetime(year, month, day, hour, minute))

flights %>%
  select(year, month, day, hour, minute, departure)

## # A tibble: 336,776 x 6
##     year month   day  hour minute departure          
##    <int> <int> <int> <dbl>  <dbl> <dttm>             
##  1  2013     1     1     5     15 2013-01-01 05:15:00
##  2  2013     1     1     5     29 2013-01-01 05:29:00
##  3  2013     1     1     5     40 2013-01-01 05:40:00
##  4  2013     1     1     5     45 2013-01-01 05:45:00
##  5  2013     1     1     6      0 2013-01-01 06:00:00
##  6  2013     1     1     5     58 2013-01-01 05:58:00
##  7  2013     1     1     6      0 2013-01-01 06:00:00
##  8  2013     1     1     6      0 2013-01-01 06:00:00
##  9  2013     1     1     6      0 2013-01-01 06:00:00
## 10  2013     1     1     6      0 2013-01-01 06:00:00
## # … with 336,766 more rows
…
Specijalan slučaj mutate naredbe je rename koju koristimo za preimenovanje kolona.

weather %>% rename(temp_C = celsius)

## # A tibble: 26,115 x 16
##    origin  year month   day  hour  temp  dewp humid wind_dir wind_speed
##    <chr>  <dbl> <dbl> <int> <int> <dbl> <dbl> <dbl>    <dbl>      <dbl>
##  1 EWR     2013     1     1     1  39.0  26.1  59.4      270      10.4 
##  2 EWR     2013     1     1     2  39.0  27.0  61.6      250       8.06
##  3 EWR     2013     1     1     3  39.0  28.0  64.4      240      11.5 
##  4 EWR     2013     1     1     4  39.9  28.0  62.2      250      12.7 
##  5 EWR     2013     1     1     5  39.0  28.0  64.4      260      12.7 
##  6 EWR     2013     1     1     6  37.9  28.0  67.2      240      11.5 
##  7 EWR     2013     1     1     7  39.0  28.0  64.4      240      15.0 
##  8 EWR     2013     1     1     8  39.9  28.0  62.2      250      10.4 
##  9 EWR     2013     1     1     9  39.9  28.0  62.2      260      15.0 
## 10 EWR     2013     1     1    10  41    28.0  59.6      260      13.8 
## # … with 26,105 more rows, and 6 more variables: wind_gust <dbl>,
## #   precip <dbl>, pressure <dbl>, visib <dbl>, time_hour <dttm>,
## #   temp_C <dbl>
…
Analizirajmo malo dijamante. U ggplot2 paketu postoji skup podataka diamonds.

diamonds

## # A tibble: 53,940 x 10
##    carat cut       color clarity depth table price     x     y     z
##    <dbl> <ord>     <ord> <ord>   <dbl> <dbl> <int> <dbl> <dbl> <dbl>
##  1 0.23  Ideal     E     SI2      61.5    55   326  3.95  3.98  2.43
##  2 0.21  Premium   E     SI1      59.8    61   326  3.89  3.84  2.31
##  3 0.23  Good      E     VS1      56.9    65   327  4.05  4.07  2.31
##  4 0.290 Premium   I     VS2      62.4    58   334  4.2   4.23  2.63
##  5 0.31  Good      J     SI2      63.3    58   335  4.34  4.35  2.75
##  6 0.24  Very Good J     VVS2     62.8    57   336  3.94  3.96  2.48
##  7 0.24  Very Good I     VVS1     62.3    57   336  3.95  3.98  2.47
##  8 0.26  Very Good H     SI1      61.9    55   337  4.07  4.11  2.53
##  9 0.22  Fair      E     VS2      65.1    61   337  3.87  3.78  2.49
## 10 0.23  Very Good H     VS1      59.4    61   338  4     4.05  2.39
## # … with 53,930 more rows
…
## # A tibble: 5 x 2
##   cut       avg_price
##   <ord>         <dbl>
## 1 Fair          4359.
## 2 Good          3929.
## 3 Very Good     3982.
## 4 Premium       4584.
## 5 Ideal         3458.

Pogledajmo malo kako radi group_by. Ideja je da od originalnog dataframe-a napravi grupisani dataframe kod koga se operacije primenjuju na svaku grupu ponaosob, umesto kolektivno na celu tabelu.

diamonds_by_cut <- diamonds %>% group_by(cut)
diamonds_by_cut

## # A tibble: 53,940 x 10
## # Groups:   cut [5]
##    carat cut       color clarity depth table price     x     y     z
##    <dbl> <ord>     <ord> <ord>   <dbl> <dbl> <int> <dbl> <dbl> <dbl>
##  1 0.23  Ideal     E     SI2      61.5    55   326  3.95  3.98  2.43
##  2 0.21  Premium   E     SI1      59.8    61   326  3.89  3.84  2.31
##  3 0.23  Good      E     VS1      56.9    65   327  4.05  4.07  2.31
##  4 0.290 Premium   I     VS2      62.4    58   334  4.2   4.23  2.63
##  5 0.31  Good      J     SI2      63.3    58   335  4.34  4.35  2.75
##  6 0.24  Very Good J     VVS2     62.8    57   336  3.94  3.96  2.48
##  7 0.24  Very Good I     VVS1     62.3    57   336  3.95  3.98  2.47
##  8 0.26  Very Good H     SI1      61.9    55   337  4.07  4.11  2.53
##  9 0.22  Fair      E     VS2      65.1    61   337  3.87  3.78  2.49
## 10 0.23  Very Good H     VS1      59.4    61   338  4     4.05  2.39
## # … with 53,930 more rows
…
Poput sortiranja, i grupisanje se može vršiti po više promenljivih. Na primer, da se vratimo na naše avione, možemo da proverimo koliko je letova bilo u svakom mesecu, ali i njih da grupišemo po aerodromima sa kog su poleteli.

flights %>%
  group_by(origin, month) %>%
  summarise(count = n())

## # A tibble: 36 x 3
## # Groups:   origin [3]
##    origin month count
##    <chr>  <int> <int>
##  1 EWR        1  9893
##  2 EWR        2  9107
##  3 EWR        3 10420
##  4 EWR        4 10531
##  5 EWR        5 10592
##  6 EWR        6 10175
##  7 EWR        7 10475
##  8 EWR        8 10359
##  9 EWR        9  9550
## 10 EWR       10 10104
## # … with 26 more rows
…
flights

## # A tibble: 336,776 x 23
##     year month   day dep_time sched_dep_time dep_delay arr_time
##    <int> <int> <int>    <int>          <int>     <dbl>    <int>
##  1  2013     1     1      517            515         2      830
##  2  2013     1     1      533            529         4      850
##  3  2013     1     1      542            540         2      923
##  4  2013     1     1      544            545        -1     1004
##  5  2013     1     1      554            600        -6      812
##  6  2013     1     1      554            558        -4      740
##  7  2013     1     1      555            600        -5      913
##  8  2013     1     1      557            600        -3      709
##  9  2013     1     1      557            600        -3      838
## 10  2013     1     1      558            600        -2      753
## # … with 336,766 more rows, and 16 more variables: sched_arr_time <int>,
## #   arr_delay <dbl>, carrier <chr>, flight <int>, tailnum <chr>,
## #   origin <chr>, dest <chr>, air_time <dbl>, distance <dbl>, hour <dbl>,
## #   minute <dbl>, time_hour <dttm>, gain <dbl>, hours <dbl>,
## #   gain_per_hour <dbl>, departure <dttm>

vidimo da imaju kolonu carrier koja označava skraćenicu avio kompanije. Možemo dodati u tabelu flights puno ime avio kompanije koristeći informaciju u tabeli airlines:

full_airline <- flights %>%
  inner_join(airlines, by = "carrier")
full_airline %>%
  select(tailnum, carrier, name)

## # A tibble: 336,776 x 3
##    tailnum carrier name                    
##    <chr>   <chr>   <chr>                   
##  1 N14228  UA      United Air Lines Inc.   
##  2 N24211  UA      United Air Lines Inc.   
##  3 N619AA  AA      American Airlines Inc.  
##  4 N804JB  B6      JetBlue Airways         
##  5 N668DN  DL      Delta Air Lines Inc.    
##  6 N39463  UA      United Air Lines Inc.   
##  7 N516JB  B6      JetBlue Airways         
##  8 N829AS  EV      ExpressJet Airlines Inc.
##  9 N593JB  B6      JetBlue Airways         
## 10 N3ALAA  AA      American Airlines Inc.  
## # … with 336,766 more rows
…
