2 Rad sa podacima | Statistički softver 2
…
Paket dplyr koristi malo bogatiju strukturu umesto dataframe-a za tabelarne podatke, a to je tibble. Podatke pretvaramo u taj format na sledeći način:

who_data <- as_tibble(who_data)
who_data

## # A tibble: 2,938 x 22
##    Country  Year Status Life.expectancy Adult.Mortality infant.deaths
##    <fct>   <int> <fct>            <dbl>           <int>         <int>
##  1 Afghan…  2015 Devel…            65               263            62
##  2 Afghan…  2014 Devel…            59.9             271            64
##  3 Afghan…  2013 Devel…            59.9             268            66
##  4 Afghan…  2012 Devel…            59.5             272            69
##  5 Afghan…  2011 Devel…            59.2             275            71
##  6 Afghan…  2010 Devel…            58.8             279            74
##  7 Afghan…  2009 Devel…            58.6             281            77
##  8 Afghan…  2008 Devel…            58.1             287            80
##  9 Afghan…  2007 Devel…            57.5             295            82
## 10 Afghan…  2006 Devel…            57.3             295            84
## # … with 2,928 more rows, and 16 more variables: Alcohol <dbl>,
## #   percentage.expenditure <dbl>, Hepatitis.B <int>, Measles <int>,
## #   BMI <dbl>, under.five.deaths <int>, Polio <int>,
## #   Total.expenditure <dbl>, Diphtheria <int>, HIV.AIDS <dbl>, GDP <dbl>,
## #   Population <dbl>, thinness..1.19.years <dbl>,
## #   thinness.5.9.years <dbl>, Income.composition.of.resources <dbl>,
## #   Schooling <dbl>
…
